^E:\D\PROJE\SAID\GPU 2\PROJE1 - CPU-BFS\CONSOLEAPPLICATION3\SOURCE.CPP
E:\D\PROJE\SAID\GPU 2\PROJE1 - CPU-BFS\CONSOLEAPPLICATION3\DEBUG\VC120.PDB
E:\D\PROJE\SAID\GPU 2\PROJE1 - CPU-BFS\CONSOLEAPPLICATION3\DEBUG\VC120.IDB
E:\D\PROJE\SAID\GPU 2\PROJE1 - CPU-BFS\CONSOLEAPPLICATION3\DEBUG\SOURCE.OBJ
^E:\D\PROJE\SAID\GPU 2\PROJE1 - CPU-BP\CONSOLEAPPLICATION3\SOURCE.CPP
E:\D\PROJE\SAID\GPU 2\PROJE1 - CPU-BP\CONSOLEAPPLICATION3\DEBUG\VC120.PDB
E:\D\PROJE\SAID\GPU 2\PROJE1 - CPU-BP\CONSOLEAPPLICATION3\DEBUG\VC120.IDB
E:\D\PROJE\SAID\GPU 2\PROJE1 - CPU-BP\CONSOLEAPPLICATION3\DEBUG\SOURCE.OBJ
